{
    "Version": "2012-10-17",
    "Statement": [
        {
            "Sid": "AllowAccessToExpressAppBucket",
            "Effect": "Allow",
            "Action": [
                "s3:GetObject",
                "s3:ListBucket",
                "s3:PutObject",
                "s3:DeleteObject"
            ],
            "Resource": [
                "arn:aws:s3:::express-app-bucket",
                "arn:aws:s3:::express-app-bucket/*"
            ]
        }
    ]
}

